02_Divisor/src/Divide /simulation/div_16_TB.vcd
$date
	Mon Nov 24 02:02:36 2025
$end
$version
	Icarus Verilog
$end
$timescale
	1ps
$end
$scope module div_16_TB $end
$scope module uut $end
$var wire 16 ! A [15:0] $end
$var wire 16 " B [15:0] $end
$var wire 1 # clk $end
$var wire 1 $ init_in $end
$var wire 1 % rst $end
$var wire 1 & z $end
$var wire 1 ' done $end
$var wire 1 ( SH $end
$var wire 16 ) Result_Sub [15:0] $end
$var wire 16 * Result [15:0] $end
$var wire 16 + Reg_A [15:0] $end
$var wire 1 , MSB $end
$var wire 1 - LDA $end
$var wire 1 . INIT $end
$var wire 1 / DV0 $end
$var wire 1 0 DEC $end
$scope module ctl_dv $end
$var wire 1 # clk $end
$var wire 1 $ init_in $end
$var wire 1 % rst $end
$var wire 1 & z $end
$var wire 1 , MSB $end
$var parameter 3 1 ADD $end
$var parameter 3 2 CHECK $end
$var parameter 3 3 END1 $end
$var parameter 3 4 SHIFT_DEC $end
$var parameter 3 5 START $end
$var reg 1 0 DEC $end
$var reg 1 ' DONE $end
$var reg 1 / DV0 $end
$var reg 1 . INIT $end
$var reg 1 - LDA $end
$var reg 1 ( SH $end
$var reg 3 6 state [2:0] $end
$upscope $end
$scope module ctr_dv $end
$var wire 1 0 DEC $end
$var wire 1 # clk $end
$var wire 1 . rst $end
$var reg 5 7 cont [4:0] $end
$var reg 1 & z $end
$upscope $end
$scope module lsr_d $end
$var wire 1 / DV0 $end
$var wire 16 8 DV_in [15:0] $end
$var wire 1 . INIT $end
$var wire 1 - LDA $end
$var wire 1 ( SH $end
$var wire 1 # clk $end
$var wire 1 . rst $end
$var wire 16 9 IN_A [15:0] $end
$var reg 16 : A [15:0] $end
$var reg 16 ; DV [15:0] $end
$var reg 16 < OUT_R [15:0] $end
$upscope $end
$scope module sb $end
$var wire 16 = in_A [15:0] $end
$var wire 16 > in_B [15:0] $end
$var reg 1 , MSB $end
$var reg 16 ? Result [15:0] $end
$upscope $end
$upscope $end
$upscope $end
$enddefinitions $end
$comment Show the parameter values. $end
$dumpall
b0 5
b1 4
b100 3
b10 2
b11 1
$end
#0
$dumpvars
bx ?
b11001010 >
bx =
bx <
bx ;
bx :
bx 9
b1001010111101100 8
b10000 7
bx 6
x0
x/
x.
x-
x,
bx +
bx *
bx )
x(
x'
0&
x%
0$
0#
b11001010 "
b1001010111101100 !
$end
#10000
0'
0-
00
0(
0/
1.
b0 6
1#
#20000
1,
b1111111100110110 )
b1111111100110110 9
b1111111100110110 ?
b0 *
b0 <
b1001010111101100 ;
b0 +
b0 :
b0 =
1%
0#
#30000
1#
#40000
0#
#50000
1#
#60000
0%
0#
#70000
1#
#80000
0#
#90000
1$
1#
#100000
0#
#110000
10
1(
0.
b1 6
1#
#120000
b1111111100110111 )
b1111111100110111 9
b1111111100110111 ?
b10101111011000 *
b10101111011000 <
b1 +
b1 :
b1 =
b10101111011000 ;
b1111 7
0#
#130000
00
0(
0$
b10 6
1#
#140000
0#
#150000
10
1(
b1 6
1#
#160000
b1111111100111000 )
b1111111100111000 9
b1111111100111000 ?
b101011110110000 *
b101011110110000 <
b10 +
b10 :
b10 =
b101011110110000 ;
b1110 7
0#
#170000
00
0(
b10 6
1#
#180000
0#
#190000
10
1(
b1 6
1#
#200000
b1111111100111010 )
b1111111100111010 9
b1111111100111010 ?
b1010111101100000 *
b1010111101100000 <
b100 +
b100 :
b100 =
b1010111101100000 ;
b1101 7
0#
#210000
00
0(
b10 6
1#
#220000
0#
#230000
10
1(
b1 6
1#
#240000
b1111111100111111 )
b1111111100111111 9
b1111111100111111 ?
b101111011000000 *
b101111011000000 <
b1001 +
b1001 :
b1001 =
b101111011000000 ;
b1100 7
0#
#250000
00
0(
b10 6
1#
#260000
0#
#270000
10
1(
b1 6
1#
#280000
b1111111101001000 )
b1111111101001000 9
b1111111101001000 ?
b1011110110000000 *
b1011110110000000 <
b10010 +
b10010 :
b10010 =
b1011110110000000 ;
b1011 7
0#
#290000
00
0(
b10 6
1#
#300000
0#
#310000
10
1(
b1 6
1#
#320000
b1111111101011011 )
b1111111101011011 9
b1111111101011011 ?
b111101100000000 *
b111101100000000 <
b100101 +
b100101 :
b100101 =
b111101100000000 ;
b1010 7
0#
#330000
00
0(
b10 6
1#
#340000
0#
#350000
10
1(
b1 6
1#
#360000
b1111111110000000 )
b1111111110000000 9
b1111111110000000 ?
b1111011000000000 *
b1111011000000000 <
b1001010 +
b1001010 :
b1001010 =
b1111011000000000 ;
b1001 7
0#
#370000
00
0(
b10 6
1#
#380000
0#
#390000
10
1(
b1 6
1#
#400000
b1111111111001011 )
b1111111111001011 9
b1111111111001011 ?
b1110110000000000 *
b1110110000000000 <
b10010101 +
b10010101 :
b10010101 =
b1110110000000000 ;
b1000 7
0#
#410000
00
0(
b10 6
1#
#420000
0#
#430000
10
1(
b1 6
1#
#440000
0,
b1100001 )
b1100001 9
b1100001 ?
b1101100000000000 *
b1101100000000000 <
b100101011 +
b100101011 :
b100101011 =
b1101100000000000 ;
b111 7
0#
#450000
00
0(
b10 6
1#
#460000
0#
#470000
1-
1/
b11 6
1#
#480000
1,
b1111111110010111 )
b1111111110010111 9
b1111111110010111 ?
b1101100000000001 ;
b1100001 +
b1100001 :
b1100001 =
0#
#490000
0-
10
1(
b1 6
1#
#500000
b1111111111111001 )
b1111111111111001 9
b1111111111111001 ?
b110 7
b1011000000000010 *
b1011000000000010 <
b11000011 +
b11000011 :
b11000011 =
b1011000000000010 ;
0#
#510000
00
0(
0/
b10 6
1#
#520000
0#
#530000
10
1(
b1 6
1#
#540000
0,
b10111101 )
b10111101 9
b10111101 ?
b101 7
b110000000000100 *
b110000000000100 <
b110000111 +
b110000111 :
b110000111 =
b110000000000100 ;
0#
#550000
00
0(
b10 6
1#
#560000
0#
#570000
1-
1/
b11 6
1#
#580000
1,
b1111111111110011 )
b1111111111110011 9
b1111111111110011 ?
b110000000000101 ;
b10111101 +
b10111101 :
b10111101 =
0#
#590000
0-
10
1(
b1 6
1#
#600000
0,
b10110000 )
b10110000 9
b10110000 ?
b1100000000001010 *
b1100000000001010 <
b101111010 +
b101111010 :
b101111010 =
b1100000000001010 ;
b100 7
0#
#610000
00
0(
0/
b10 6
1#
#620000
0#
#630000
1-
1/
b11 6
1#
#640000
1,
b1111111111100110 )
b1111111111100110 9
b1111111111100110 ?
b1100000000001011 ;
b10110000 +
b10110000 :
b10110000 =
0#
#650000
0-
10
1(
b1 6
1#
#660000
0,
b10010111 )
b10010111 9
b10010111 ?
b11 7
b1000000000010110 *
b1000000000010110 <
b101100001 +
b101100001 :
b101100001 =
b1000000000010110 ;
0#
#670000
00
0(
0/
b10 6
1#
#680000
0#
#690000
1-
1/
b11 6
1#
#700000
1,
b1111111111001101 )
b1111111111001101 9
b1111111111001101 ?
b1000000000010111 ;
b10010111 +
b10010111 :
b10010111 =
0#
#710000
0-
10
1(
b1 6
1#
#720000
0,
b1100101 )
b1100101 9
b1100101 ?
b101110 *
b101110 <
b100101111 +
b100101111 :
b100101111 =
b101110 ;
b10 7
0#
#730000
00
0(
0/
b10 6
1#
#740000
0#
#750000
1-
1/
b11 6
1#
#760000
1,
b1111111110011011 )
b1111111110011011 9
b1111111110011011 ?
b101111 ;
b1100101 +
b1100101 :
b1100101 =
0#
#770000
0-
10
1(
b1 6
1#
#780000
0,
b0 )
b0 9
b0 ?
b1 7
b1011110 *
b1011110 <
b11001010 +
b11001010 :
b11001010 =
b1011110 ;
0#
#790000
00
0(
0/
b10 6
1#
#800000
0#
#810000
1-
1/
b11 6
1#
#820000
1,
b1111111100110110 )
b1111111100110110 9
b1111111100110110 ?
b1011111 ;
b0 +
b0 :
b0 =
0#
#830000
0-
10
1(
b1 6
1#
#840000
b10111110 *
b10111110 <
b10111110 ;
1&
b0 7
0#
#850000
00
0(
0/
b10 6
1#
#860000
0#
#870000
1'
b100 6
1#
